---
http_interactions:
- request:
    method: get
    uri: https://lda.senate.gov/api/v1/lobbyists/?registrant_name=Miller%20%26%20Chevalier%20Chartered
    body:
      encoding: US-ASCII
      string: ''
    headers:
      Content-Type:
      - application/json
      User-Agent:
      - Faraday v2.10.1
      Accept-Encoding:
      - gzip;q=1.0,deflate;q=0.6,identity;q=0.3
      Accept:
      - "*/*"
  response:
    status:
      code: 200
      message: OK
    headers:
      Server:
      - gunicorn
      Content-Type:
      - application/json
      Allow:
      - GET
      X-Frame-Options:
      - DENY
      X-Content-Type-Options:
      - nosniff
      X-Xss-Protection:
      - 1; mode=block
      Referrer-Policy:
      - same-origin
      Vary:
      - Accept-Encoding
      Date:
      - Mon, 14 Oct 2024 22:37:06 GMT
      Content-Length:
      - '18908'
      Connection:
      - keep-alive
      Set-Cookie:
      - 1a4f67d77fcdf9317fe4757ff2e67be3=9e332dc89e7b81352a8ab08582c6e937; path=/;
        HttpOnly; Secure; SameSite=None
      Strict-Transport-Security:
      - max-age=31536000
    body:
      encoding: UTF-8
      string: '{"count":78,"next":"https://lda.senate.gov/api/v1/lobbyists/?page=2&registrant_name=Miller+%26+Chevalier+Chartered","previous":null,"results":[{"id":741,"prefix":null,"prefix_display":null,"first_name":"MICHAEL","nickname":null,"middle_name":"L","last_name":"SCHULTZ","suffix":null,"suffix_display":null,"registrant":{"id":25306,"url":"https://lda.senate.gov/api/v1/registrants/25306/","house_registrant_id":30617,"name":"MILLER
        & CHEVALIER CHARTERED","description":"Law firm","address_1":"900 16th St.,
        NW","address_2":null,"address_3":null,"address_4":null,"city":"Washington","state":"DC","state_display":"District
        of Columbia","zip":"20006","country":"US","country_display":"United States
        of America","ppb_country":"US","ppb_country_display":"United States of America","contact_name":"PATRICK
        HOLTEN","contact_telephone":"+1 202-626-5877","dt_updated":"2024-10-11T11:26:05.203636-04:00"}},{"id":1635,"prefix":null,"prefix_display":null,"first_name":"ZACHARY","nickname":null,"middle_name":null,"last_name":"PAULSEN","suffix":null,"suffix_display":null,"registrant":{"id":25306,"url":"https://lda.senate.gov/api/v1/registrants/25306/","house_registrant_id":30617,"name":"MILLER
        & CHEVALIER CHARTERED","description":"Law firm","address_1":"900 16th St.,
        NW","address_2":null,"address_3":null,"address_4":null,"city":"Washington","state":"DC","state_display":"District
        of Columbia","zip":"20006","country":"US","country_display":"United States
        of America","ppb_country":"US","ppb_country_display":"United States of America","contact_name":"PATRICK
        HOLTEN","contact_telephone":"+1 202-626-5877","dt_updated":"2024-10-11T11:26:05.203636-04:00"}},{"id":1812,"prefix":null,"prefix_display":null,"first_name":"RICHARD","nickname":null,"middle_name":"A","last_name":"HIBEY","suffix":null,"suffix_display":null,"registrant":{"id":25306,"url":"https://lda.senate.gov/api/v1/registrants/25306/","house_registrant_id":30617,"name":"MILLER
        & CHEVALIER CHARTERED","description":"Law firm","address_1":"900 16th St.,
        NW","address_2":null,"address_3":null,"address_4":null,"city":"Washington","state":"DC","state_display":"District
        of Columbia","zip":"20006","country":"US","country_display":"United States
        of America","ppb_country":"US","ppb_country_display":"United States of America","contact_name":"PATRICK
        HOLTEN","contact_telephone":"+1 202-626-5877","dt_updated":"2024-10-11T11:26:05.203636-04:00"}},{"id":1943,"prefix":null,"prefix_display":null,"first_name":"CATHERINE","nickname":null,"middle_name":"T","last_name":"PORTER","suffix":null,"suffix_display":null,"registrant":{"id":25306,"url":"https://lda.senate.gov/api/v1/registrants/25306/","house_registrant_id":30617,"name":"MILLER
        & CHEVALIER CHARTERED","description":"Law firm","address_1":"900 16th St.,
        NW","address_2":null,"address_3":null,"address_4":null,"city":"Washington","state":"DC","state_display":"District
        of Columbia","zip":"20006","country":"US","country_display":"United States
        of America","ppb_country":"US","ppb_country_display":"United States of America","contact_name":"PATRICK
        HOLTEN","contact_telephone":"+1 202-626-5877","dt_updated":"2024-10-11T11:26:05.203636-04:00"}},{"id":2594,"prefix":"mr","prefix_display":"MR.","first_name":"HOMER","nickname":null,"middle_name":"E","last_name":"MOYER","suffix":"jr","suffix_display":"JR","registrant":{"id":25306,"url":"https://lda.senate.gov/api/v1/registrants/25306/","house_registrant_id":30617,"name":"MILLER
        & CHEVALIER CHARTERED","description":"Law firm","address_1":"900 16th St.,
        NW","address_2":null,"address_3":null,"address_4":null,"city":"Washington","state":"DC","state_display":"District
        of Columbia","zip":"20006","country":"US","country_display":"United States
        of America","ppb_country":"US","ppb_country_display":"United States of America","contact_name":"PATRICK
        HOLTEN","contact_telephone":"+1 202-626-5877","dt_updated":"2024-10-11T11:26:05.203636-04:00"}},{"id":2636,"prefix":null,"prefix_display":null,"first_name":"MATTHEW","nickname":null,"middle_name":null,"last_name":"ELLIS","suffix":null,"suffix_display":null,"registrant":{"id":25306,"url":"https://lda.senate.gov/api/v1/registrants/25306/","house_registrant_id":30617,"name":"MILLER
        & CHEVALIER CHARTERED","description":"Law firm","address_1":"900 16th St.,
        NW","address_2":null,"address_3":null,"address_4":null,"city":"Washington","state":"DC","state_display":"District
        of Columbia","zip":"20006","country":"US","country_display":"United States
        of America","ppb_country":"US","ppb_country_display":"United States of America","contact_name":"PATRICK
        HOLTEN","contact_telephone":"+1 202-626-5877","dt_updated":"2024-10-11T11:26:05.203636-04:00"}},{"id":2928,"prefix":null,"prefix_display":null,"first_name":"DENNIS","nickname":null,"middle_name":"P","last_name":"BEDELL","suffix":null,"suffix_display":null,"registrant":{"id":25306,"url":"https://lda.senate.gov/api/v1/registrants/25306/","house_registrant_id":30617,"name":"MILLER
        & CHEVALIER CHARTERED","description":"Law firm","address_1":"900 16th St.,
        NW","address_2":null,"address_3":null,"address_4":null,"city":"Washington","state":"DC","state_display":"District
        of Columbia","zip":"20006","country":"US","country_display":"United States
        of America","ppb_country":"US","ppb_country_display":"United States of America","contact_name":"PATRICK
        HOLTEN","contact_telephone":"+1 202-626-5877","dt_updated":"2024-10-11T11:26:05.203636-04:00"}},{"id":3121,"prefix":null,"prefix_display":null,"first_name":"GREG","nickname":null,"middle_name":null,"last_name":"MASTEL","suffix":null,"suffix_display":null,"registrant":{"id":25306,"url":"https://lda.senate.gov/api/v1/registrants/25306/","house_registrant_id":30617,"name":"MILLER
        & CHEVALIER CHARTERED","description":"Law firm","address_1":"900 16th St.,
        NW","address_2":null,"address_3":null,"address_4":null,"city":"Washington","state":"DC","state_display":"District
        of Columbia","zip":"20006","country":"US","country_display":"United States
        of America","ppb_country":"US","ppb_country_display":"United States of America","contact_name":"PATRICK
        HOLTEN","contact_telephone":"+1 202-626-5877","dt_updated":"2024-10-11T11:26:05.203636-04:00"}},{"id":3123,"prefix":null,"prefix_display":null,"first_name":"LORI","nickname":null,"middle_name":null,"last_name":"WITTLIN","suffix":null,"suffix_display":null,"registrant":{"id":25306,"url":"https://lda.senate.gov/api/v1/registrants/25306/","house_registrant_id":30617,"name":"MILLER
        & CHEVALIER CHARTERED","description":"Law firm","address_1":"900 16th St.,
        NW","address_2":null,"address_3":null,"address_4":null,"city":"Washington","state":"DC","state_display":"District
        of Columbia","zip":"20006","country":"US","country_display":"United States
        of America","ppb_country":"US","ppb_country_display":"United States of America","contact_name":"PATRICK
        HOLTEN","contact_telephone":"+1 202-626-5877","dt_updated":"2024-10-11T11:26:05.203636-04:00"}},{"id":3865,"prefix":null,"prefix_display":null,"first_name":"LUCINDA","nickname":null,"middle_name":"A","last_name":"LOW","suffix":null,"suffix_display":null,"registrant":{"id":25306,"url":"https://lda.senate.gov/api/v1/registrants/25306/","house_registrant_id":30617,"name":"MILLER
        & CHEVALIER CHARTERED","description":"Law firm","address_1":"900 16th St.,
        NW","address_2":null,"address_3":null,"address_4":null,"city":"Washington","state":"DC","state_display":"District
        of Columbia","zip":"20006","country":"US","country_display":"United States
        of America","ppb_country":"US","ppb_country_display":"United States of America","contact_name":"PATRICK
        HOLTEN","contact_telephone":"+1 202-626-5877","dt_updated":"2024-10-11T11:26:05.203636-04:00"}},{"id":4196,"prefix":null,"prefix_display":null,"first_name":"J","nickname":null,"middle_name":"MICHAEL","last_name":"CORNETT","suffix":null,"suffix_display":null,"registrant":{"id":25306,"url":"https://lda.senate.gov/api/v1/registrants/25306/","house_registrant_id":30617,"name":"MILLER
        & CHEVALIER CHARTERED","description":"Law firm","address_1":"900 16th St.,
        NW","address_2":null,"address_3":null,"address_4":null,"city":"Washington","state":"DC","state_display":"District
        of Columbia","zip":"20006","country":"US","country_display":"United States
        of America","ppb_country":"US","ppb_country_display":"United States of America","contact_name":"PATRICK
        HOLTEN","contact_telephone":"+1 202-626-5877","dt_updated":"2024-10-11T11:26:05.203636-04:00"}},{"id":4267,"prefix":null,"prefix_display":null,"first_name":"JOHN","nickname":null,"middle_name":null,"last_name":"MAGNUS","suffix":null,"suffix_display":null,"registrant":{"id":25306,"url":"https://lda.senate.gov/api/v1/registrants/25306/","house_registrant_id":30617,"name":"MILLER
        & CHEVALIER CHARTERED","description":"Law firm","address_1":"900 16th St.,
        NW","address_2":null,"address_3":null,"address_4":null,"city":"Washington","state":"DC","state_display":"District
        of Columbia","zip":"20006","country":"US","country_display":"United States
        of America","ppb_country":"US","ppb_country_display":"United States of America","contact_name":"PATRICK
        HOLTEN","contact_telephone":"+1 202-626-5877","dt_updated":"2024-10-11T11:26:05.203636-04:00"}},{"id":5290,"prefix":null,"prefix_display":null,"first_name":"MYLES","nickname":null,"middle_name":null,"last_name":"GETLAN","suffix":null,"suffix_display":null,"registrant":{"id":25306,"url":"https://lda.senate.gov/api/v1/registrants/25306/","house_registrant_id":30617,"name":"MILLER
        & CHEVALIER CHARTERED","description":"Law firm","address_1":"900 16th St.,
        NW","address_2":null,"address_3":null,"address_4":null,"city":"Washington","state":"DC","state_display":"District
        of Columbia","zip":"20006","country":"US","country_display":"United States
        of America","ppb_country":"US","ppb_country_display":"United States of America","contact_name":"PATRICK
        HOLTEN","contact_telephone":"+1 202-626-5877","dt_updated":"2024-10-11T11:26:05.203636-04:00"}},{"id":6566,"prefix":null,"prefix_display":null,"first_name":"DAVID","nickname":null,"middle_name":"B","last_name":"BLAIR","suffix":null,"suffix_display":null,"registrant":{"id":25306,"url":"https://lda.senate.gov/api/v1/registrants/25306/","house_registrant_id":30617,"name":"MILLER
        & CHEVALIER CHARTERED","description":"Law firm","address_1":"900 16th St.,
        NW","address_2":null,"address_3":null,"address_4":null,"city":"Washington","state":"DC","state_display":"District
        of Columbia","zip":"20006","country":"US","country_display":"United States
        of America","ppb_country":"US","ppb_country_display":"United States of America","contact_name":"PATRICK
        HOLTEN","contact_telephone":"+1 202-626-5877","dt_updated":"2024-10-11T11:26:05.203636-04:00"}},{"id":6637,"prefix":null,"prefix_display":null,"first_name":"JEFFERY","nickname":null,"middle_name":null,"last_name":"LOWE","suffix":null,"suffix_display":null,"registrant":{"id":25306,"url":"https://lda.senate.gov/api/v1/registrants/25306/","house_registrant_id":30617,"name":"MILLER
        & CHEVALIER CHARTERED","description":"Law firm","address_1":"900 16th St.,
        NW","address_2":null,"address_3":null,"address_4":null,"city":"Washington","state":"DC","state_display":"District
        of Columbia","zip":"20006","country":"US","country_display":"United States
        of America","ppb_country":"US","ppb_country_display":"United States of America","contact_name":"PATRICK
        HOLTEN","contact_telephone":"+1 202-626-5877","dt_updated":"2024-10-11T11:26:05.203636-04:00"}},{"id":6774,"prefix":null,"prefix_display":null,"first_name":"JACQUELINE","nickname":null,"middle_name":null,"last_name":"DEGRAVELLES","suffix":null,"suffix_display":null,"registrant":{"id":25306,"url":"https://lda.senate.gov/api/v1/registrants/25306/","house_registrant_id":30617,"name":"MILLER
        & CHEVALIER CHARTERED","description":"Law firm","address_1":"900 16th St.,
        NW","address_2":null,"address_3":null,"address_4":null,"city":"Washington","state":"DC","state_display":"District
        of Columbia","zip":"20006","country":"US","country_display":"United States
        of America","ppb_country":"US","ppb_country_display":"United States of America","contact_name":"PATRICK
        HOLTEN","contact_telephone":"+1 202-626-5877","dt_updated":"2024-10-11T11:26:05.203636-04:00"}},{"id":10212,"prefix":null,"prefix_display":null,"first_name":"MARIA","nickname":null,"middle_name":"O''TOOLE","last_name":"JONES","suffix":null,"suffix_display":null,"registrant":{"id":25306,"url":"https://lda.senate.gov/api/v1/registrants/25306/","house_registrant_id":30617,"name":"MILLER
        & CHEVALIER CHARTERED","description":"Law firm","address_1":"900 16th St.,
        NW","address_2":null,"address_3":null,"address_4":null,"city":"Washington","state":"DC","state_display":"District
        of Columbia","zip":"20006","country":"US","country_display":"United States
        of America","ppb_country":"US","ppb_country_display":"United States of America","contact_name":"PATRICK
        HOLTEN","contact_telephone":"+1 202-626-5877","dt_updated":"2024-10-11T11:26:05.203636-04:00"}},{"id":11085,"prefix":null,"prefix_display":null,"first_name":"JOHN","nickname":null,"middle_name":null,"last_name":"GILLILAND","suffix":null,"suffix_display":null,"registrant":{"id":25306,"url":"https://lda.senate.gov/api/v1/registrants/25306/","house_registrant_id":30617,"name":"MILLER
        & CHEVALIER CHARTERED","description":"Law firm","address_1":"900 16th St.,
        NW","address_2":null,"address_3":null,"address_4":null,"city":"Washington","state":"DC","state_display":"District
        of Columbia","zip":"20006","country":"US","country_display":"United States
        of America","ppb_country":"US","ppb_country_display":"United States of America","contact_name":"PATRICK
        HOLTEN","contact_telephone":"+1 202-626-5877","dt_updated":"2024-10-11T11:26:05.203636-04:00"}},{"id":12062,"prefix":null,"prefix_display":null,"first_name":"LEONARD","nickname":null,"middle_name":null,"last_name":"BICKWIT","suffix":"jr","suffix_display":"JR","registrant":{"id":25306,"url":"https://lda.senate.gov/api/v1/registrants/25306/","house_registrant_id":30617,"name":"MILLER
        & CHEVALIER CHARTERED","description":"Law firm","address_1":"900 16th St.,
        NW","address_2":null,"address_3":null,"address_4":null,"city":"Washington","state":"DC","state_display":"District
        of Columbia","zip":"20006","country":"US","country_display":"United States
        of America","ppb_country":"US","ppb_country_display":"United States of America","contact_name":"PATRICK
        HOLTEN","contact_telephone":"+1 202-626-5877","dt_updated":"2024-10-11T11:26:05.203636-04:00"}},{"id":13265,"prefix":null,"prefix_display":null,"first_name":"MELIDA","nickname":null,"middle_name":null,"last_name":"HODGSON","suffix":null,"suffix_display":null,"registrant":{"id":25306,"url":"https://lda.senate.gov/api/v1/registrants/25306/","house_registrant_id":30617,"name":"MILLER
        & CHEVALIER CHARTERED","description":"Law firm","address_1":"900 16th St.,
        NW","address_2":null,"address_3":null,"address_4":null,"city":"Washington","state":"DC","state_display":"District
        of Columbia","zip":"20006","country":"US","country_display":"United States
        of America","ppb_country":"US","ppb_country_display":"United States of America","contact_name":"PATRICK
        HOLTEN","contact_telephone":"+1 202-626-5877","dt_updated":"2024-10-11T11:26:05.203636-04:00"}},{"id":14149,"prefix":null,"prefix_display":null,"first_name":"HAL","nickname":null,"middle_name":null,"last_name":"SHAPIRO","suffix":null,"suffix_display":null,"registrant":{"id":25306,"url":"https://lda.senate.gov/api/v1/registrants/25306/","house_registrant_id":30617,"name":"MILLER
        & CHEVALIER CHARTERED","description":"Law firm","address_1":"900 16th St.,
        NW","address_2":null,"address_3":null,"address_4":null,"city":"Washington","state":"DC","state_display":"District
        of Columbia","zip":"20006","country":"US","country_display":"United States
        of America","ppb_country":"US","ppb_country_display":"United States of America","contact_name":"PATRICK
        HOLTEN","contact_telephone":"+1 202-626-5877","dt_updated":"2024-10-11T11:26:05.203636-04:00"}},{"id":15352,"prefix":null,"prefix_display":null,"first_name":"LAYLA","nickname":null,"middle_name":null,"last_name":"AKSAKAL","suffix":null,"suffix_display":null,"registrant":{"id":25306,"url":"https://lda.senate.gov/api/v1/registrants/25306/","house_registrant_id":30617,"name":"MILLER
        & CHEVALIER CHARTERED","description":"Law firm","address_1":"900 16th St.,
        NW","address_2":null,"address_3":null,"address_4":null,"city":"Washington","state":"DC","state_display":"District
        of Columbia","zip":"20006","country":"US","country_display":"United States
        of America","ppb_country":"US","ppb_country_display":"United States of America","contact_name":"PATRICK
        HOLTEN","contact_telephone":"+1 202-626-5877","dt_updated":"2024-10-11T11:26:05.203636-04:00"}},{"id":16040,"prefix":null,"prefix_display":null,"first_name":"STEVEN","nickname":null,"middle_name":null,"last_name":"ROSENTHAL","suffix":null,"suffix_display":null,"registrant":{"id":25306,"url":"https://lda.senate.gov/api/v1/registrants/25306/","house_registrant_id":30617,"name":"MILLER
        & CHEVALIER CHARTERED","description":"Law firm","address_1":"900 16th St.,
        NW","address_2":null,"address_3":null,"address_4":null,"city":"Washington","state":"DC","state_display":"District
        of Columbia","zip":"20006","country":"US","country_display":"United States
        of America","ppb_country":"US","ppb_country_display":"United States of America","contact_name":"PATRICK
        HOLTEN","contact_telephone":"+1 202-626-5877","dt_updated":"2024-10-11T11:26:05.203636-04:00"}},{"id":16396,"prefix":null,"prefix_display":null,"first_name":"JON","nickname":null,"middle_name":null,"last_name":"HUENEMANN","suffix":null,"suffix_display":null,"registrant":{"id":25306,"url":"https://lda.senate.gov/api/v1/registrants/25306/","house_registrant_id":30617,"name":"MILLER
        & CHEVALIER CHARTERED","description":"Law firm","address_1":"900 16th St.,
        NW","address_2":null,"address_3":null,"address_4":null,"city":"Washington","state":"DC","state_display":"District
        of Columbia","zip":"20006","country":"US","country_display":"United States
        of America","ppb_country":"US","ppb_country_display":"United States of America","contact_name":"PATRICK
        HOLTEN","contact_telephone":"+1 202-626-5877","dt_updated":"2024-10-11T11:26:05.203636-04:00"}},{"id":17752,"prefix":null,"prefix_display":null,"first_name":"LAWRENCE","nickname":null,"middle_name":"B","last_name":"GIBBS","suffix":null,"suffix_display":null,"registrant":{"id":25306,"url":"https://lda.senate.gov/api/v1/registrants/25306/","house_registrant_id":30617,"name":"MILLER
        & CHEVALIER CHARTERED","description":"Law firm","address_1":"900 16th St.,
        NW","address_2":null,"address_3":null,"address_4":null,"city":"Washington","state":"DC","state_display":"District
        of Columbia","zip":"20006","country":"US","country_display":"United States
        of America","ppb_country":"US","ppb_country_display":"United States of America","contact_name":"PATRICK
        HOLTEN","contact_telephone":"+1 202-626-5877","dt_updated":"2024-10-11T11:26:05.203636-04:00"}}]}'
  recorded_at: Mon, 14 Oct 2024 22:37:06 GMT
recorded_with: VCR 6.3.1
